alembic==1.4.0
appdirs==1.4.3
atomicwrites==1.3.0
attrs==19.3.0
black==19.3b0
certifi==2019.11.28
cffi==1.14.0
Click==7.0
coverage==4.5.4
cryptography==2.8
distlib==0.3.0
entrypoints==0.3
filelock==3.0.12
flake8==3.7.8
Flask==1.1.1
Flask-Login==0.5.0
Flask-Migrate==2.5.2
Flask-SQLAlchemy==2.4.1
gunicorn==20.0.4
importlib-metadata==1.5.0
importlib-resources==1.0.2
itsdangerous==1.1.0
Jinja2==2.11.1
Mako==1.1.1
MarkupSafe==1.1.1
mccabe==0.6.1
more-itertools==8.2.0
packaging==20.1
pathspec==0.7.0
Pillow==7.0.0
pipenv==2018.11.26
pluggy==0.13.1
psycopg2-binary==2.8.4
pureauth-sdk==1.0.0.dev1
py==1.8.1
pycodestyle==2.5.0
pycparser==2.19
pyflakes==2.1.1
pyparsing==2.4.6
pytest==5.1.2
python-dateutil==2.8.1
python-editor==1.0.4
qrcode==6.1
regex==2020.1.8
six==1.14.0
SQLAlchemy==1.3.13
toml==0.10.0
typed-ast==1.4.1
virtualenv==20.0.4
virtualenv-clone==0.5.3
wcwidth==0.1.8
Werkzeug==1.0.0
zipp==3.0.0
